^C:\USERS\АНДРЕЙ\DESKTOP\ШАГ\CONSOLEAPPLICATION123\CONSOLEAPPLICATION123\ИСХОДНЫЙ КОД.CPP
/c /ZI /nologo /W3 /WX- /sdl /Od /Oy- /D WIN32 /D _DEBUG /D _CONSOLE /D _LIB /D _UNICODE /D UNICODE /Gm /EHsc /RTC1 /MDd /GS /fp:precise /Zc:wchar_t /Zc:forScope /Fo"DEBUG\\" /Fd"DEBUG\VC120.PDB" /Gd /TP /analyze- C:\USERS\АНДРЕЙ\DESKTOP\ШАГ\CONSOLEAPPLICATION123\CONSOLEAPPLICATION123\ИСХОДНЫЙ КОД.CPP
^G:\FRACTIONERROR\CONSOLEAPPLICATION123\ИСХОДНЫЙ КОД.CPP
/c /ZI /nologo /W3 /WX- /sdl /Od /Oy- /D WIN32 /D _DEBUG /D _CONSOLE /D _LIB /D _UNICODE /D UNICODE /Gm /EHsc /RTC1 /MDd /GS /fp:precise /Zc:wchar_t /Zc:forScope /Zc:inline /Fo"DEBUG\\" /Fd"DEBUG\VC140.PDB" /Gd /TP /analyze- G:\FRACTIONERROR\CONSOLEAPPLICATION123\ИСХОДНЫЙ КОД.CPP
