^C:\USERS\USER\DESKTOP\Институт\Леша\Конь\CONSOLEAPPLICATION1\STDAFX.CPP
C:\USERS\USER\DESKTOP\институт\леша\конь\CONSOLEAPPLICATION1\STDAFX.H
C:\USERS\USER\DESKTOP\институт\леша\конь\CONSOLEAPPLICATION1\TARGETVER.H
C:\PROGRAM FILES (X86)\WINDOWS KITS\8.0\INCLUDE\SHARED\SDKDDKVER.H
D:\PROGRAM FILES\VISUAL STUDIO\VC\INCLUDE\STDIO.H
D:\PROGRAM FILES\VISUAL STUDIO\VC\INCLUDE\CRTDEFS.H
D:\PROGRAM FILES\VISUAL STUDIO\VC\INCLUDE\SAL.H
D:\PROGRAM FILES\VISUAL STUDIO\VC\INCLUDE\CONCURRENCYSAL.H
D:\PROGRAM FILES\VISUAL STUDIO\VC\INCLUDE\VADEFS.H
D:\PROGRAM FILES\VISUAL STUDIO\VC\INCLUDE\SWPRINTF.INL
D:\PROGRAM FILES\VISUAL STUDIO\VC\INCLUDE\TCHAR.H
D:\PROGRAM FILES\VISUAL STUDIO\VC\INCLUDE\WCHAR.H
D:\PROGRAM FILES\VISUAL STUDIO\VC\INCLUDE\WTIME.INL
^C:\USERS\USER\DESKTOP\Институт\Леша\Конь\CONSOLEAPPLICATION1\CONSOLEAPPLICATION1.CPP
D:\PROGRAM FILES\VISUAL STUDIO\VC\INCLUDE\STDIO.H
D:\PROGRAM FILES\VISUAL STUDIO\VC\INCLUDE\CRTDEFS.H
D:\PROGRAM FILES\VISUAL STUDIO\VC\INCLUDE\SAL.H
D:\PROGRAM FILES\VISUAL STUDIO\VC\INCLUDE\CONCURRENCYSAL.H
D:\PROGRAM FILES\VISUAL STUDIO\VC\INCLUDE\VADEFS.H
D:\PROGRAM FILES\VISUAL STUDIO\VC\INCLUDE\SWPRINTF.INL
D:\PROGRAM FILES\VISUAL STUDIO\VC\INCLUDE\STDLIB.H
D:\PROGRAM FILES\VISUAL STUDIO\VC\INCLUDE\LIMITS.H
