^B:\MY\УЧЕБА\PROGS\С\8\CONSOLEAPPLICATION1\DEBUG\CONSOLEAPPLICATION1.OBJ|B:\MY\УЧЕБА\PROGS\С\8\CONSOLEAPPLICATION1\DEBUG\STDAFX.OBJ
/OUT:"B:\MY\УЧЕБА\PROGS\С\8\CONSOLEAPPLICATION1\DEBUG\CONSOLEAPPLICATION1.EXE" /INCREMENTAL /NOLOGO kernel32.lib user32.lib gdi32.lib winspool.lib comdlg32.lib advapi32.lib shell32.lib ole32.lib oleaut32.lib uuid.lib odbc32.lib odbccp32.lib /MANIFEST /MANIFESTUAC:"level='asInvoker' uiAccess='false'" /manifest:embed /DEBUG /PDB:"B:\MY\УЧЕБА\PROGS\С\8\CONSOLEAPPLICATION1\DEBUG\CONSOLEAPPLICATION1.PDB" /SUBSYSTEM:CONSOLE /TLBID:1 /DYNAMICBASE /NXCOMPAT /IMPLIB:"B:\MY\УЧЕБА\PROGS\С\8\CONSOLEAPPLICATION1\DEBUG\CONSOLEAPPLICATION1.LIB" /MACHINE:X86 DEBUG\CONSOLEAPPLICATION1.OBJDEBUG\STDAFX.OBJ
^F:\8\CONSOLEAPPLICATION1\DEBUG\CONSOLEAPPLICATION1.OBJ|F:\8\CONSOLEAPPLICATION1\DEBUG\STDAFX.OBJ
/OUT:"F:\8\CONSOLEAPPLICATION1\DEBUG\CONSOLEAPPLICATION1.EXE" /INCREMENTAL /NOLOGO kernel32.lib user32.lib gdi32.lib winspool.lib comdlg32.lib advapi32.lib shell32.lib ole32.lib oleaut32.lib uuid.lib odbc32.lib odbccp32.lib /MANIFEST /MANIFESTUAC:"level='asInvoker' uiAccess='false'" /manifest:embed /DEBUG /PDB:"F:\8\CONSOLEAPPLICATION1\DEBUG\CONSOLEAPPLICATION1.PDB" /SUBSYSTEM:CONSOLE /TLBID:1 /DYNAMICBASE /NXCOMPAT /IMPLIB:"F:\8\CONSOLEAPPLICATION1\DEBUG\CONSOLEAPPLICATION1.LIB" /MACHINE:X86 DEBUG\CONSOLEAPPLICATION1.OBJDEBUG\STDAFX.OBJ
^C:\USERS\USER\DESKTOP\ИНСТИТУТ\ЛЕША\КОНЬ\CONSOLEAPPLICATION1\DEBUG\CONSOLEAPPLICATION1.OBJ|C:\USERS\USER\DESKTOP\ИНСТИТУТ\ЛЕША\КОНЬ\CONSOLEAPPLICATION1\DEBUG\STDAFX.OBJ
/OUT:"C:\USERS\USER\DESKTOP\ИНСТИТУТ\ЛЕША\КОНЬ\CONSOLEAPPLICATION1\DEBUG\CONSOLEAPPLICATION1.EXE" /INCREMENTAL /NOLOGO kernel32.lib user32.lib gdi32.lib winspool.lib comdlg32.lib advapi32.lib shell32.lib ole32.lib oleaut32.lib uuid.lib odbc32.lib odbccp32.lib /MANIFEST /MANIFESTUAC:"level='asInvoker' uiAccess='false'" /manifest:embed /DEBUG /PDB:"C:\USERS\USER\DESKTOP\ИНСТИТУТ\ЛЕША\КОНЬ\CONSOLEAPPLICATION1\DEBUG\CONSOLEAPPLICATION1.PDB" /SUBSYSTEM:CONSOLE /TLBID:1 /DYNAMICBASE /NXCOMPAT /IMPLIB:"C:\USERS\USER\DESKTOP\ИНСТИТУТ\ЛЕША\КОНЬ\CONSOLEAPPLICATION1\DEBUG\CONSOLEAPPLICATION1.LIB" /MACHINE:X86 DEBUG\CONSOLEAPPLICATION1.OBJDEBUG\STDAFX.OBJ
