^E:\ALEXANDR\LABWORK1\LABWORK1\DEBUG\FUNCTIONS.OBJ|E:\ALEXANDR\LABWORK1\LABWORK1\DEBUG\TESTER.OBJ
E:\ALEXANDR\LABWORK1\DEBUG\LABWORK1.ILK
E:\ALEXANDR\LABWORK1\DEBUG\LABWORK1.EXE
E:\ALEXANDR\LABWORK1\DEBUG\LABWORK1.PDB
