^E:\ALEXANDR\LABWORK1(FILE)\LABWORK1(FILE)\FUNCTIONS.CPP|E:\ALEXANDR\LABWORK1(FILE)\LABWORK1(FILE)\TESTER.CPP
E:\ALEXANDR\LABWORK1(FILE)\LABWORK1(FILE)\DEBUG\VC140.PDB
E:\ALEXANDR\LABWORK1(FILE)\LABWORK1(FILE)\DEBUG\VC140.IDB
E:\ALEXANDR\LABWORK1(FILE)\LABWORK1(FILE)\DEBUG\FUNCTIONS.OBJ
E:\ALEXANDR\LABWORK1(FILE)\LABWORK1(FILE)\DEBUG\TESTER.OBJ
^E:\ALEXANDR\LABWORK1(FILE)\LABWORK1(FILE)\FUNCTIONS.CPP
E:\ALEXANDR\LABWORK1(FILE)\LABWORK1(FILE)\DEBUG\VC140.PDB
^E:\ALEXANDR\LABWORK1(FILE)\LABWORK1(FILE)\TESTER.CPP
E:\ALEXANDR\LABWORK1(FILE)\LABWORK1(FILE)\DEBUG\VC140.PDB
