^F:\!STUDY!\2.2\C#\L4\L4V2\L4V2\PROPERTIES\RESOURCES.RESX
^F:\!STUDY!\2.2\C#\L4\L4V2\L4V2\FORM1.RESX
^D:\!STUDY!\2.2\C#\L4\L4V2\L4V2\FORM1.RESX
^D:\!STUDY!\2.2\C#\L4\L4V2\L4V2\PROPERTIES\RESOURCES.RESX
