^F:\!STUDY!\2.2\C#\L4\L4V2\L4V2\FORM1.RESX|F:\!STUDY!\2.2\C#\L4\L4V2\L4V2\PROPERTIES\RESOURCES.RESX
F:\!STUDY!\2.2\C#\L4\L4V2\L4V2\OBJ\X86\DEBUG\L4V2.FORM1.RESOURCES
F:\!STUDY!\2.2\C#\L4\L4V2\L4V2\OBJ\X86\DEBUG\L4V2.PROPERTIES.RESOURCES.RESOURCES
^D:\!STUDY!\2.2\C#\L4\L4V2\L4V2\FORM1.RESX|D:\!STUDY!\2.2\C#\L4\L4V2\L4V2\PROPERTIES\RESOURCES.RESX
D:\!STUDY!\2.2\C#\L4\L4V2\L4V2\OBJ\X86\DEBUG\L4V2.FORM1.RESOURCES
D:\!STUDY!\2.2\C#\L4\L4V2\L4V2\OBJ\X86\DEBUG\L4V2.PROPERTIES.RESOURCES.RESOURCES
