^B:\MY\УЧЕБА\PROGS\LABYRYNTH\CONSOLEAPPLICATION2\CONSOLEAPPLICATION2\CONSOLEAPPLICATION2.CPP
/c /ZI /nologo /W3 /WX- /sdl /Od /Oy- /D WIN32 /D _DEBUG /D _CONSOLE /D _UNICODE /D UNICODE /Gm /EHsc /RTC1 /MDd /GS /fp:precise /Zc:wchar_t /Zc:forScope /Fo"DEBUG\\" /Fd"DEBUG\VC110.PDB" /Gd /TP /analyze- B:\MY\УЧЕБА\PROGS\LABYRYNTH\CONSOLEAPPLICATION2\CONSOLEAPPLICATION2\CONSOLEAPPLICATION2.CPP
^B:\MY\УЧЕБА\PROGS\LABYRYNTH\CONSOLEAPPLICATION2\CONSOLEAPPLICATION2\STDAFX.CPP
/c /ZI /nologo /W3 /WX- /sdl /Od /Oy- /D WIN32 /D _DEBUG /D _CONSOLE /D _UNICODE /D UNICODE /Gm /EHsc /RTC1 /MDd /GS /fp:precise /Zc:wchar_t /Zc:forScope /Fo"DEBUG\\" /Fd"DEBUG\VC110.PDB" /Gd /TP /analyze- B:\MY\УЧЕБА\PROGS\LABYRYNTH\CONSOLEAPPLICATION2\CONSOLEAPPLICATION2\STDAFX.CPP
^B:\MY\УЧЕБА\PROGS\С\11\CONSOLEAPPLICATION2\CONSOLEAPPLICATION2\CONSOLEAPPLICATION2.CPP
/c /ZI /nologo /W3 /WX- /sdl /Od /Oy- /D WIN32 /D _DEBUG /D _CONSOLE /D _UNICODE /D UNICODE /Gm /EHsc /RTC1 /MDd /GS /fp:precise /Zc:wchar_t /Zc:forScope /Fo"DEBUG\\" /Fd"DEBUG\VC110.PDB" /Gd /TP /analyze- B:\MY\УЧЕБА\PROGS\С\11\CONSOLEAPPLICATION2\CONSOLEAPPLICATION2\CONSOLEAPPLICATION2.CPP
^B:\MY\УЧЕБА\PROGS\С\11\CONSOLEAPPLICATION2\CONSOLEAPPLICATION2\STDAFX.CPP
/c /ZI /nologo /W3 /WX- /sdl /Od /Oy- /D WIN32 /D _DEBUG /D _CONSOLE /D _UNICODE /D UNICODE /Gm /EHsc /RTC1 /MDd /GS /fp:precise /Zc:wchar_t /Zc:forScope /Fo"DEBUG\\" /Fd"DEBUG\VC110.PDB" /Gd /TP /analyze- B:\MY\УЧЕБА\PROGS\С\11\CONSOLEAPPLICATION2\CONSOLEAPPLICATION2\STDAFX.CPP
^C:\USERS\USER\DESKTOP\ИНСТИТУТ\ЛЕША\ЛАБИРИНТ\CONSOLEAPPLICATION2\CONSOLEAPPLICATION2\CONSOLEAPPLICATION2.CPP
/c /ZI /nologo /W3 /WX- /sdl /Od /Oy- /D WIN32 /D _DEBUG /D _CONSOLE /D _UNICODE /D UNICODE /Gm /EHsc /RTC1 /MDd /GS /fp:precise /Zc:wchar_t /Zc:forScope /Fo"DEBUG\\" /Fd"DEBUG\VC110.PDB" /Gd /TP /analyze- C:\USERS\USER\DESKTOP\ИНСТИТУТ\ЛЕША\ЛАБИРИНТ\CONSOLEAPPLICATION2\CONSOLEAPPLICATION2\CONSOLEAPPLICATION2.CPP
^C:\USERS\USER\DESKTOP\ИНСТИТУТ\ЛЕША\ЛАБИРИНТ\CONSOLEAPPLICATION2\CONSOLEAPPLICATION2\STDAFX.CPP
/c /ZI /nologo /W3 /WX- /sdl /Od /Oy- /D WIN32 /D _DEBUG /D _CONSOLE /D _UNICODE /D UNICODE /Gm /EHsc /RTC1 /MDd /GS /fp:precise /Zc:wchar_t /Zc:forScope /Fo"DEBUG\\" /Fd"DEBUG\VC110.PDB" /Gd /TP /analyze- C:\USERS\USER\DESKTOP\ИНСТИТУТ\ЛЕША\ЛАБИРИНТ\CONSOLEAPPLICATION2\CONSOLEAPPLICATION2\STDAFX.CPP
